<?xml version="1.0" encoding="UTF-8"?>
<!DOCTYPE svg PUBLIC '-//W3C//DTD SVG 1.0//EN'
          'http://www.w3.org/TR/2001/REC-SVG-20010904/DTD/svg10.dtd'>
<svg fill-opacity="0" xmlns:xlink="http://www.w3.org/1999/xlink" color-rendering="auto" color-interpolation="auto" text-rendering="auto" stroke="rgb(0,0,0)" stroke-linecap="square" width="558" stroke-miterlimit="10" shape-rendering="auto" stroke-opacity="0" fill="rgb(0,0,0)" stroke-dasharray="none" font-weight="normal" stroke-width="1" height="364" xmlns="http://www.w3.org/2000/svg" font-family="'Dialog'" font-style="normal" stroke-linejoin="miter" font-size="12px" stroke-dashoffset="0" image-rendering="auto"
><!--Generated by the Batik Graphics2D SVG Generator--><defs id="genericDefs"
  /><g
  ><defs id="defs1"
    ><clipPath clipPathUnits="userSpaceOnUse" id="clipPath1"
      ><path d="M-7 -7 L82 -7 L82 369 L-7 369 L-7 -7 Z"
      /></clipPath
      ><clipPath clipPathUnits="userSpaceOnUse" id="clipPath2"
      ><path d="M-7 -7 L81 -7 L81 369 L-7 369 L-7 -7 Z"
      /></clipPath
      ><clipPath clipPathUnits="userSpaceOnUse" id="clipPath3"
      ><path d="M-7 -7 L19 -7 L19 277 L-7 277 L-7 -7 Z"
      /></clipPath
      ><clipPath clipPathUnits="userSpaceOnUse" id="clipPath4"
      ><path d="M-85 -15 L170 -15 L170 30 L-85 30 L-85 -15 Z"
      /></clipPath
      ><clipPath clipPathUnits="userSpaceOnUse" id="clipPath5"
      ><path d="M-70 -15 L140 -15 L140 30 L-70 30 L-70 -15 Z"
      /></clipPath
      ><clipPath clipPathUnits="userSpaceOnUse" id="clipPath6"
      ><path d="M0 0 L451 0 L451 104 L0 104 L0 0 Z"
      /></clipPath
      ><clipPath clipPathUnits="userSpaceOnUse" id="clipPath7"
      ><path d="M88 13 L88 28 L3 28 L3 13 ZM340 30 L340 45 L103 45 L103 30 ZM363 63 L363 78 L80 78 L80 63 ZM0 0 L0 104 L142 104 L142 96 L303 96 L303 104 L451 104 L451 0 Z"
      /></clipPath
      ><clipPath clipPathUnits="userSpaceOnUse" id="clipPath8"
      ><path d="M363 30 L363 45 L80 45 L80 30 ZM303 63 L303 78 L142 78 L142 63 ZM0 0 L0 104 L88 104 L88 100 L355 100 L355 104 L443 104 L443 92 L451 92 L451 0 L340 0 L340 12 L103 12 L103 0 Z"
      /></clipPath
      ><clipPath clipPathUnits="userSpaceOnUse" id="clipPath9"
      ><path d="M303 30 L303 45 L142 45 L142 30 ZM355 67 L355 82 L88 82 L88 67 ZM0 0 L0 104 L451 104 L451 74 L443 74 L443 59 L451 59 L451 0 L363 0 L363 12 L80 12 L80 0 Z"
      /></clipPath
      ><clipPath clipPathUnits="userSpaceOnUse" id="clipPath10"
      ><path d="M0 0 L134 0 L134 124 L0 124 L0 0 Z"
      /></clipPath
      ><clipPath clipPathUnits="userSpaceOnUse" id="clipPath11"
      ><path d="M8 0 L8 4 L0 4 L0 124 L134 124 L134 66 L88 66 L88 51 L134 51 L134 0 Z"
      /></clipPath
      ><clipPath clipPathUnits="userSpaceOnUse" id="clipPath12"
      ><path d="M355 30 L355 45 L88 45 L88 30 ZM294 69 L294 84 L151 84 L151 69 ZM0 0 L0 104 L451 104 L451 37 L443 37 L443 22 L451 22 L451 0 L303 0 L303 8 L142 8 L142 0 Z"
      /></clipPath
      ><clipPath clipPathUnits="userSpaceOnUse" id="clipPath13"
      ><path d="M294 30 L294 45 L151 45 L151 30 ZM342 65 L342 80 L103 80 L103 65 ZM0 0 L0 104 L184 104 L184 103 L261 103 L261 104 L451 104 L451 0 L355 0 L355 6 L88 6 L88 0 Z"
      /></clipPath
      ><clipPath clipPathUnits="userSpaceOnUse" id="clipPath14"
      ><path d="M342 30 L342 45 L103 45 L103 30 ZM261 68 L261 83 L184 83 L184 68 ZM0 0 L0 104 L451 104 L451 0 L294 0 L294 10 L151 10 L151 0 Z"
      /></clipPath
      ><clipPath clipPathUnits="userSpaceOnUse" id="clipPath15"
      ><path d="M261 30 L261 45 L184 45 L184 30 ZM305 69 L305 84 L140 84 L140 69 ZM0 0 L0 104 L451 104 L451 0 L342 0 L342 7 L103 7 L103 0 Z"
      /></clipPath
      ><clipPath clipPathUnits="userSpaceOnUse" id="clipPath16"
      ><path d="M305 30 L305 45 L140 45 L140 30 ZM0 0 L0 104 L451 104 L451 0 L261 0 L261 6 L184 6 L184 0 Z"
      /></clipPath
      ><clipPath clipPathUnits="userSpaceOnUse" id="clipPath17"
      ><path d="M-165 -15 L330 -15 L330 30 L-165 30 L-165 -15 Z"
      /></clipPath
      ><clipPath clipPathUnits="userSpaceOnUse" id="clipPath18"
      ><path d="M-77 -15 L154 -15 L154 30 L-77 30 L-77 -15 Z"
      /></clipPath
      ><clipPath clipPathUnits="userSpaceOnUse" id="clipPath19"
      ><path d="M-239 -15 L478 -15 L478 30 L-239 30 L-239 -15 Z"
      /></clipPath
      ><clipPath clipPathUnits="userSpaceOnUse" id="clipPath20"
      ><path d="M-143 -15 L286 -15 L286 30 L-143 30 L-143 -15 Z"
      /></clipPath
      ><clipPath clipPathUnits="userSpaceOnUse" id="clipPath21"
      ><path d="M-267 -15 L534 -15 L534 30 L-267 30 L-267 -15 Z"
      /></clipPath
      ><clipPath clipPathUnits="userSpaceOnUse" id="clipPath22"
      ><path d="M-112 -15 L224 -15 L224 30 L-112 30 L-112 -15 Z"
      /></clipPath
      ><clipPath clipPathUnits="userSpaceOnUse" id="clipPath23"
      ><path d="M-161 -15 L322 -15 L322 30 L-161 30 L-161 -15 Z"
      /></clipPath
      ><clipPath clipPathUnits="userSpaceOnUse" id="clipPath24"
      ><path d="M-283 -15 L566 -15 L566 30 L-283 30 L-283 -15 Z"
      /></clipPath
      ><clipPath clipPathUnits="userSpaceOnUse" id="clipPath25"
      ><path d="M-237 -15 L474 -15 L474 30 L-237 30 L-237 -15 Z"
      /></clipPath
    ></defs
    ><g fill="white" text-rendering="geometricPrecision" fill-opacity="1" stroke-opacity="1" stroke="white"
    ><rect x="0" width="558" height="364" y="0" stroke="none"
    /></g
    ><g font-size="11px" transform="translate(9,2)" fill-opacity="1" fill="rgb(122,207,245)" text-rendering="geometricPrecision" image-rendering="optimizeQuality" font-family="sans-serif" stroke="rgb(122,207,245)" stroke-opacity="1"
    ><circle r="5" clip-path="url(#clipPath1)" cx="35" cy="5" stroke="none"
      /><rect x="31" width="8" height="307" y="50" clip-path="url(#clipPath1)" stroke="none"
    /></g
    ><g stroke-linecap="butt" font-size="11px" transform="translate(9,2)" fill-opacity="1" fill="black" text-rendering="geometricPrecision" image-rendering="optimizeQuality" font-family="sans-serif" stroke-linejoin="round" stroke="black" stroke-opacity="1" stroke-miterlimit="0"
    ><circle fill="none" r="5" clip-path="url(#clipPath1)" cx="35" cy="5"
      /><rect fill="none" x="31" width="8" height="307" y="50" clip-path="url(#clipPath1)"
      /><line y2="25" fill="none" x1="35" clip-path="url(#clipPath1)" x2="35" y1="10"
      /><line y2="36" fill="none" x1="35" clip-path="url(#clipPath1)" x2="26" y1="25"
      /><line y2="36" fill="none" x1="35" clip-path="url(#clipPath1)" x2="44" y1="25"
      /><line y2="16" fill="none" x1="26" clip-path="url(#clipPath1)" x2="44" y1="16"
    /></g
    ><g font-size="11px" transform="translate(365,2)" fill-opacity="1" fill="rgb(122,207,245)" text-rendering="geometricPrecision" image-rendering="optimizeQuality" font-family="sans-serif" stroke="rgb(122,207,245)" stroke-opacity="1"
    ><rect x="0" width="69" height="35" y="0" clip-path="url(#clipPath2)" stroke="none"
    /></g
    ><g stroke-linecap="butt" font-size="11px" transform="translate(365,2)" fill-opacity="1" fill="black" text-rendering="geometricPrecision" image-rendering="optimizeQuality" font-family="sans-serif" stroke-linejoin="round" stroke="black" stroke-opacity="1" stroke-miterlimit="0"
    ><rect fill="none" x="0" width="69" height="35" y="0" clip-path="url(#clipPath2)"
      /><line clip-path="url(#clipPath2)" fill="none" x1="34" x2="34" y1="35" y2="358" stroke-linejoin="bevel" stroke-dasharray="8,3"
    /></g
    ><g font-size="11px" transform="translate(396,74)" fill-opacity="1" fill="rgb(122,207,245)" text-rendering="geometricPrecision" image-rendering="optimizeQuality" font-family="sans-serif" stroke="rgb(122,207,245)" stroke-opacity="1"
    ><rect x="0" width="8" height="266" y="0" clip-path="url(#clipPath3)" stroke="none"
    /></g
    ><g stroke-linecap="butt" font-size="11px" transform="translate(396,74)" fill-opacity="1" fill="black" text-rendering="geometricPrecision" image-rendering="optimizeQuality" font-family="sans-serif" stroke-linejoin="round" stroke="black" stroke-opacity="1" stroke-miterlimit="0"
    ><rect fill="none" x="0" width="8" height="266" y="0" clip-path="url(#clipPath3)"
    /></g
    ><g font-size="11px" transform="translate(2,37)" fill-opacity="1" fill="black" text-rendering="geometricPrecision" image-rendering="optimizeQuality" font-family="sans-serif" stroke="black" stroke-opacity="1"
    ><text x="10" xml:space="preserve" y="12" clip-path="url(#clipPath4)" stroke="none"
      >Administrator</text
    ></g
    ><g font-size="11px" transform="translate(365,2)" fill-opacity="1" fill="black" text-rendering="geometricPrecision" image-rendering="optimizeQuality" font-family="sans-serif" stroke="black" stroke-opacity="1"
    ><text x="13" xml:space="preserve" y="12" clip-path="url(#clipPath5)" stroke="none"
      >: System</text
    ></g
    ><g stroke-linecap="butt" font-size="11px" transform="translate(-1,24)" fill-opacity="1" fill="black" text-rendering="geometricPrecision" image-rendering="optimizeQuality" font-family="sans-serif" stroke-linejoin="round" stroke="black" stroke-opacity="1"
    ><line y2="50" fill="none" x1="50" clip-path="url(#clipPath7)" x2="397" y1="50"
      /><polygon points=" 397 50 385 44 385 56" clip-path="url(#clipPath7)" stroke="none"
      /><polygon fill="none" points=" 397 50 385 44 385 56" clip-path="url(#clipPath7)"
    /></g
    ><g stroke-linecap="butt" font-size="11px" transform="translate(-1,57)" fill-opacity="1" fill="black" text-rendering="geometricPrecision" image-rendering="optimizeQuality" font-family="sans-serif" stroke-linejoin="round" stroke="black" stroke-opacity="1"
    ><line y2="50" fill="none" x1="397" clip-path="url(#clipPath8)" x2="50" y1="50"
      /><polygon points=" 50 50 62 56 62 44" clip-path="url(#clipPath8)" stroke="none"
      /><polygon fill="none" points=" 50 50 62 56 62 44" clip-path="url(#clipPath8)"
    /></g
    ><g stroke-linecap="butt" font-size="11px" transform="translate(-1,90)" fill-opacity="1" fill="black" text-rendering="geometricPrecision" image-rendering="optimizeQuality" font-family="sans-serif" stroke-linejoin="round" stroke="black" stroke-opacity="1"
    ><line y2="50" fill="none" x1="50" clip-path="url(#clipPath9)" x2="397" y1="50"
      /><polygon points=" 397 50 385 44 385 56" clip-path="url(#clipPath9)" stroke="none"
      /><polygon fill="none" points=" 397 50 385 44 385 56" clip-path="url(#clipPath9)"
    /></g
    ><g stroke-linecap="butt" font-size="11px" transform="translate(354,98)" fill-opacity="1" fill="black" text-rendering="geometricPrecision" image-rendering="optimizeQuality" font-family="sans-serif" stroke-linejoin="round" stroke="black" stroke-opacity="1"
    ><line y2="50" fill="none" x1="50" clip-path="url(#clipPath11)" x2="80" y1="50"
      /><line y2="70" fill="none" x1="80" clip-path="url(#clipPath11)" x2="80" y1="50"
      /><line y2="70" fill="none" x1="80" clip-path="url(#clipPath11)" x2="50" y1="70"
      /><polygon points=" 50 70 62 76 62 64" clip-path="url(#clipPath11)" stroke="none"
      /><polygon fill="none" points=" 50 70 62 76 62 64" clip-path="url(#clipPath11)"
    /></g
    ><g stroke-linecap="butt" font-size="11px" transform="translate(-1,127)" fill-opacity="1" fill="black" text-rendering="geometricPrecision" image-rendering="optimizeQuality" font-family="sans-serif" stroke-linejoin="round" stroke="black" stroke-opacity="1"
    ><line y2="50" fill="none" x1="397" clip-path="url(#clipPath12)" x2="50" y1="50"
      /><polygon points=" 50 50 62 56 62 44" clip-path="url(#clipPath12)" stroke="none"
      /><polygon fill="none" points=" 50 50 62 56 62 44" clip-path="url(#clipPath12)"
    /></g
    ><g stroke-linecap="butt" font-size="11px" transform="translate(-1,166)" fill-opacity="1" fill="black" text-rendering="geometricPrecision" image-rendering="optimizeQuality" font-family="sans-serif" stroke-linejoin="round" stroke="black" stroke-opacity="1"
    ><line y2="50" fill="none" x1="50" clip-path="url(#clipPath13)" x2="397" y1="50"
      /><polygon points=" 397 50 385 44 385 56" clip-path="url(#clipPath13)" stroke="none"
      /><polygon fill="none" points=" 397 50 385 44 385 56" clip-path="url(#clipPath13)"
    /></g
    ><g stroke-linecap="butt" font-size="11px" transform="translate(-1,201)" fill-opacity="1" fill="black" text-rendering="geometricPrecision" image-rendering="optimizeQuality" font-family="sans-serif" stroke-linejoin="round" stroke="black" stroke-opacity="1"
    ><line y2="50" fill="none" x1="397" clip-path="url(#clipPath14)" x2="50" y1="50"
      /><polygon points=" 50 50 62 56 62 44" clip-path="url(#clipPath14)" stroke="none"
      /><polygon fill="none" points=" 50 50 62 56 62 44" clip-path="url(#clipPath14)"
    /></g
    ><g stroke-linecap="butt" font-size="11px" transform="translate(-1,239)" fill-opacity="1" fill="black" text-rendering="geometricPrecision" image-rendering="optimizeQuality" font-family="sans-serif" stroke-linejoin="round" stroke="black" stroke-opacity="1"
    ><line y2="50" fill="none" x1="50" clip-path="url(#clipPath15)" x2="397" y1="50"
      /><polygon points=" 397 50 385 44 385 56" clip-path="url(#clipPath15)" stroke="none"
      /><polygon fill="none" points=" 397 50 385 44 385 56" clip-path="url(#clipPath15)"
    /></g
    ><g stroke-linecap="butt" font-size="11px" transform="translate(-1,278)" fill-opacity="1" fill="black" text-rendering="geometricPrecision" image-rendering="optimizeQuality" font-family="sans-serif" stroke-linejoin="round" stroke="black" stroke-opacity="1"
    ><line y2="50" fill="none" x1="397" clip-path="url(#clipPath16)" x2="50" y1="50"
      /><polygon points=" 50 50 62 56 62 44" clip-path="url(#clipPath16)" stroke="none"
      /><polygon fill="none" points=" 50 50 62 56 62 44" clip-path="url(#clipPath16)"
    /></g
    ><g font-size="11px" transform="translate(139,308)" fill-opacity="1" fill="white" text-rendering="geometricPrecision" image-rendering="optimizeQuality" font-family="sans-serif" stroke="white" stroke-opacity="1"
    ><rect x="0" width="165" height="15" y="0" clip-path="url(#clipPath17)" stroke="none"
      /><text fill="black" x="10" xml:space="preserve" y="12" clip-path="url(#clipPath17)" stroke="none"
      >4.1: Shows success message</text
    ></g
    ><g font-size="11px" transform="translate(183,269)" fill-opacity="1" fill="white" text-rendering="geometricPrecision" image-rendering="optimizeQuality" font-family="sans-serif" stroke="white" stroke-opacity="1"
    ><rect x="0" width="77" height="15" y="0" clip-path="url(#clipPath18)" stroke="none"
      /><text fill="black" x="9" xml:space="preserve" y="12" clip-path="url(#clipPath18)" stroke="none"
      >4: Confirms</text
    ></g
    ><g font-size="11px" transform="translate(102,231)" fill-opacity="1" fill="white" text-rendering="geometricPrecision" image-rendering="optimizeQuality" font-family="sans-serif" stroke="white" stroke-opacity="1"
    ><rect x="0" width="239" height="15" y="0" clip-path="url(#clipPath19)" stroke="none"
      /><text fill="black" x="10" xml:space="preserve" y="12" clip-path="url(#clipPath19)" stroke="none"
      >3.1: Shows all data and asks for confirmation</text
    ></g
    ><g font-size="11px" transform="translate(150,196)" fill-opacity="1" fill="white" text-rendering="geometricPrecision" image-rendering="optimizeQuality" font-family="sans-serif" stroke="white" stroke-opacity="1"
    ><rect x="0" width="143" height="15" y="0" clip-path="url(#clipPath20)" stroke="none"
      /><text fill="black" x="9" xml:space="preserve" y="12" clip-path="url(#clipPath20)" stroke="none"
      >3: Chooses one category</text
    ></g
    ><g font-size="11px" transform="translate(87,157)" fill-opacity="1" fill="white" text-rendering="geometricPrecision" image-rendering="optimizeQuality" font-family="sans-serif" stroke="white" stroke-opacity="1"
    ><rect x="0" width="267" height="15" y="0" clip-path="url(#clipPath21)" stroke="none"
      /><text fill="black" x="9" xml:space="preserve" y="12" clip-path="url(#clipPath21)" stroke="none"
      >2.2: Shows list of categories for the user to choose</text
    ></g
    ><g font-size="11px" transform="translate(442,149)" fill-opacity="1" fill="white" text-rendering="geometricPrecision" image-rendering="optimizeQuality" font-family="sans-serif" stroke="white" stroke-opacity="1"
    ><rect x="0" width="112" height="15" y="0" clip-path="url(#clipPath22)" stroke="none"
      /><text fill="black" x="9" xml:space="preserve" y="12" clip-path="url(#clipPath22)" stroke="none"
      >2.1: Validates data</text
    ></g
    ><g font-size="11px" transform="translate(141,120)" fill-opacity="1" fill="white" text-rendering="geometricPrecision" image-rendering="optimizeQuality" font-family="sans-serif" stroke="white" stroke-opacity="1"
    ><rect x="0" width="161" height="15" y="0" clip-path="url(#clipPath23)" stroke="none"
      /><text fill="black" x="9" xml:space="preserve" y="12" clip-path="url(#clipPath23)" stroke="none"
      >2: Introduces requested data</text
    ></g
    ><g font-size="11px" transform="translate(79,87)" fill-opacity="1" fill="white" text-rendering="geometricPrecision" image-rendering="optimizeQuality" font-family="sans-serif" stroke="white" stroke-opacity="1"
    ><rect x="0" width="283" height="15" y="0" clip-path="url(#clipPath24)" stroke="none"
      /><text fill="black" x="9" xml:space="preserve" y="12" clip-path="url(#clipPath24)" stroke="none"
      >1.1: Requests for data input (code, name, description)</text
    ></g
    ><g font-size="11px" transform="translate(102,54)" fill-opacity="1" fill="white" text-rendering="geometricPrecision" image-rendering="optimizeQuality" font-family="sans-serif" stroke="white" stroke-opacity="1"
    ><rect x="0" width="237" height="15" y="0" clip-path="url(#clipPath25)" stroke="none"
      /><text fill="black" x="9" xml:space="preserve" y="12" clip-path="url(#clipPath25)" stroke="none"
      >1: Selects option to specify a new parameter</text
    ></g
    ><g font-size="8px" fill-opacity="1" fill="rgb(120,120,120)" text-rendering="geometricPrecision" image-rendering="optimizeQuality" stroke="rgb(120,120,120)" stroke-opacity="1"
    ><text x="0" xml:space="preserve" y="10" stroke="none"
      >Visual Paradigm Standard(Emanuel Salvadinho(Instituto Superior de Engenharia do Porto))</text
    ></g
  ></g
></svg
>
